version: 0.0.1
xyz:
  url: >-
    https://tile.thunderforest.com/pioneer/{z}/{x}/{y}.png?apikey=${api_key}
  prompt:
    - name: api_key
      type: string
      description:
        - language: fr
          text: >
            <p>Votre clé d'API Thunderforest, par exemple <code>8e5cd3c46f0a75f2bb623aag</code>.</p>
            <p>Vous pouvez en créer une sur <a href="https://www.thunderforest.com/pricing/" target="_blank">https://www.thunderforest.com/pricing/</a></p>
        - language: en
          text: >
            <p>Your Thunderforest API key, per example <code>8e5cd3c46f0a75f2bb623aag</code>.</p>
            <p>You can create one at <a href="https://www.thunderforest.com/pricing/" target="_blank">https://www.thunderforest.com/pricing/</a></p>
