version: 0.0.1
xyz:
  url: https://tiles.stadiamaps.com/tiles/alidade_smooth/{z}/{x}/{y}@2x.png?api_key=${api_key}
  minZoom: 0
  maxZoom: 20
  prompt:
    - name: api_key
      type: string
      description:
        - language: fr
          text: >
            <p>Votre clé d'API Stadia Maps, par exemple <code>fae1b58d-5289-b773-1046-3e99bb127bde</code>.</p>
            <p>Vous pouvez en créer une sur <a href="https://client.stadiamaps.com/signup/" target="_blank">https://client.stadiamaps.com/signup/</a></p>
        - language: en
          text: >
            <p>Your Stadia Maps API key, for example <code>fae1b58d-5289-b773-1046-3e99bb127bde</code>.</p>
            <p>You can create one at <a href="https://client.stadiamaps.com/signup/" target="_blank">https://client.stadiamaps.com/signup/</a></p>
